{
    "ROOT_DIR": "content",
    "FILE_EXTENSIONS": [".py", ".html", ".htm"],
    "LOCAL_PATH_INDEX": "content\\index.html",
    "LOCAL_PATH_400": "content\\400.html",
    "LOCAL_PATH_403": "content\\403.html",
    "LOCAL_PATH_404": "content\\404.html",
    "LOCAL_PATH_409": "content\\409.html",
    "LOCAL_PATH_416": "content\\416.html",
    "LOCAL_PATH_423": "content\\423.html",
    "LOCAL_PATH_LAYOUT": "content\\layout.html",
    "LOCAL_PATH_COMMAND_PING": "..\\commands\\ping.html",
    "RELATIVE_PATH_INDEX": "index.html",
    "RENDER_VARIABLE_PREFIX": "${",
    "RENDER_VARIABLE_SUFFIX": "}",
    "BUFFERSIZE": 131072,
    "SUSPICIOUS_ROUTES": [],
    "SSH_KEYFILE": "",
    "SSH_CERTFILE": "",
    "HASH_SECRET": "iamalittledingobecauseidontupdatemyhashsecret",
    "IP": "127.0.0.1",
    "OUTBOUND_IP": "127.0.0.1",
    "PORT": 92,
    "LOCAL_IP_RANGE": "127.0.0.",
    "ENSURE_THRESHOLD": 1,
    "DB_URI": "mongodb://localhost:27017/",
    "DB_NAME": "CLUSTERED_AI_VIDEO_UPSCALE_DATA"
}
